{
  "content": [
    {
      "fid": 1,
      "id": 501,
      "stationName": "Hanasaari",
      "stationAddress": "Hanasaarenranta 1",
      "stationCity": "Espoo",
      "stationCapacity": 10,
      "stationLocationX": 24.840319,
      "stationLocationY": 60.16582
    },
    {
      "fid": 457,
      "id": 405,
      "stationName": "Jollas",
      "stationAddress": "Jollaksentie 33",
      "stationCity": " ",
      "stationCapacity": 16,
      "stationLocationX": 25.061668,
      "stationLocationY": 60.164406
    },
    {
      "fid": 2,
      "id": 503,
      "stationName": "Keilalahti",
      "stationAddress": "Keilalahdentie 2",
      "stationCity": "Espoo",
      "stationCapacity": 28,
      "stationLocationX": 24.827467,
      "stationLocationY": 60.171524
    }
  ],
  "pageable": {
    "sort": {
      "empty": false,
      "unsorted": false,
      "sorted": true
    },
    "offset": 0,
    "pageSize": 3,
    "pageNumber": 0,
    "paged": true,
    "unpaged": false
  },
  "last": false,
  "totalPages": 2,
  "totalElements": 5,
  "size": 3,
  "number": 0,
  "sort": {
    "empty": false,
    "unsorted": false,
    "sorted": true
  },
  "first": true,
  "numberOfElements": 3,
  "empty": false
}
